24 -40 -72 -56 -64 -32 -64 -64 512
992
-8 8 -40 912
56 -80 840
64 -32 880
72 -72 -32 8 -64 704
992
-80 -8 -16 -72 -64 712
992
-40 -24 -64 -48 784
992
72 -64 32 -56 736
-56 -80 -40 -16 -8 -24 720
40 -16 128 -48 728
-24 960
-56 -64 -40 -64 -56 -16 648
992
-24 -72 -64 808
992
88 -8 -8 -32 824
992
112 -40 824
72 -32 872
992
-32 24 -40 -48 80 -72 648
360 -64 552
-48 -56 -8 -16 -64 -48 -72 -8 -24 576
