-48 936
992
992
-48 -40 -16 -40 -24 -72 -16 680
-80 -24 872
-48 -8 -56 856
-32 -8 208 -16 -48 640
-40 -64 -24 -8 -40 776
64 -64 -8 -72 752
-64 -64 -48 792
-80 48 -8 -32 -32 752
-56 160 -16 736
992
72 -80 -16 -40 752
-40 -80 8 -48 -32 -16 720
96 -80 -80 712
64 -72 840
-80 -40 -72 -64 -24 672
-40 -72 72 -40 -32 -40 8 -8 616
56 -56 64 -40 744
-40 -40 896
992
-32 -8 72 -72 40 -24 696
