24 -8 64 -8 -56 792
992
-40 40 -24 -24 832
992
-16 -40 -16 896
-8 -8 -64 -56 -64 -8 -72 -80 -40 520
992
48 -80 -32 808
120 -32 -56 80 -64 600
992
-32 -64 128 -72 664
-32 -56 888
112 -72 792
992
-80 56 -72 -56 80 -80 520
992
8 -8 16 -64 864
992
-64 -16 8 -8 -56 -48 -40 696
-40 32 -40 856
992
992
-8 8 -48 64 -8 816
104 -24 848
-40 -56 -16 -8 840
-80 904
