26

3
10
1
9
9
-2
-3
-3
1
1
7
-3
-1

5
7
9
5
-2
-3
-1
-1

5
5
3
3
1
-5
-2

8
2
4
4
-1
-3
-2
8
7
-1
-1
-1

9
-1
2
5
2

1
1
8
7
8
1
9
10
5

10
10
7
7
6
8
6
2
9
-3
-4
-2
-6
-1
-4
-3
-2
-1

4
1
8
-3
10
4
-1
-1

3
1
-1
9
4
7
10
8
-1
-1
-3

2
4
-1
-1

8
-1
4
8
9
6
9
-4
-3

6
5
1
9
-3
-2
-2
-1
4
7
7
-3

6
2
-2
7
9
-1
-1

6
5
-1
-1

10
7
9
7
10
10
-2
-4

4
9
1
6
6
8
5
3
-8
-7
-6
-5
-4
-2
-1
-1

1
4
8
6
5
-5
-4
-2
10
1
-1
-3

1
2
-2
-1
1
6
8
6
-4
-3
-2
-1

3
6
2
1
3
-2
-4
-1
-1
8
2
7
6
5

5
1
2
5
7
-5
-2
-2

1
2
5
-3
2
-3
-2
-1

4
4
3
8
10
-2
-2
-1
-2
-1
1
8
7
7
2
-2
-3
-1
-1
-1

1
1
6
4
8
-5
3
1
-5
-2
-3

10
2
3
2
4
7
-2
-3
-3
-3
-1

5
3
-2
7
2
1

8
-1
10
4
-2
