28

7
10
8
-1
-2
2
7
4
7
-2
-4
-3
-2

3
7
3
9
8
5
9
9
10
10
-5
-7
-6
-7
-6
-4
-2
-2
-1

5
-1
4
6
10
7
5
-5
-1
-1
-1

10
10
4
7
-3
-2
-1
-1
6
6
9
9
-2

6
1
-2
-1
7
-1

5
7
8
10
3
-5
-2
1
2
6
-3

3
10
-2
3
1
6

10
5
3
9
-2
-2
-1
-1
10
2
9
-2
-1

6
2
-2
10
4
7
9
-4
-1
-3

7
8
2
4
7
9
-5
-2

1
2
6
-3
-2
9
9
-1
-2

4
3
-1
-1
2
10
7
6
5
-4
-4

7
7
6
10
10
-4

8
-1
2
8
3
4
5
-2
-3

7
-1
2
8
5
8
-2

6
7
1
4
1
9
-6

5
1
-1
7
7

10
7
5
-1
1
4
-3
-2
-1
-1

8
7
6
-2
-2
-1
8
-1

2
9
3
7
7
-3
-1
-2
-2
-1
3
10
9
1
-4
-2
-2

9
3
9
-3

3
3
10
6
-3
-2
5
4

7
9
10
3
8
-1

6
9
4
8
4
6
-2
-3

3
5
1
-1
-1
-1
1
5
6
-2
-2
-1

2
8
-1
-1
4
5
-2
-1

5
1
-2
8
-1
-1

2
8
8
6
6
10
8
3
8
-6
-6
-3
-3
-3
-2
-1
-1
-1
