24 -8 -16 104 -48 -56 688
-64 -48 56 -80 712
992
-32 952
-80 24 -16 848
-24 -24 928
-48 -64 56 -32 760
56 -56 -24 -72 752
-80 -16 -72 800
152 -56 768
992
992
-80 -24 -8 -56 792
992
248 -72 656
-48 -80 848
992
40 -16 -72 -56 -64 704
-8 976
80 -8 888
-24 72 -48 -80 736
-16 -8 952
-16 -48 -48 16 -64 -40 -64 640
