26

3
2
9
1
6
-1
-2
-3
-2
10
6
5
9
7

10
9
7
4
1
-2
-4
-2
-1
1
1

3
1
4
-3
-2
-1
6
6
-2

3
6
1
3
8
-3
-2
-1
3
5
-1

3
1
8
9
9
3
1
-1

6
5
6
8
7
3
4
6
2
7
-2
-8
-4
-3
-4
-5
-2
-2

10
5
10
-1
-1

2
10
3
6
3
-1
-2
4
3
8
-6
-4
-2
-2

10
9
1
3
4
-4
-4
-1
5
3
7
9
-5
-3
-4

6
4
9
2
-1
-2
5
6
-3
-2
-2

1
4
10
6
-2
2
6
2
1
8

5
5
7
10
10
-5
-2
1
9
8
-5
-4
-1
-1

8
7
2
8
-3
-3
4
7
9
7
-6
-4
-1

4
7
-1
-1
6
5
2
3
-1
-3
-2
-1

8
6
5
-2
10
9
-1
-2
-1

1
7
6
3
-4
-1

3
-1
7
2
5
7
-3
-3
-1

1
8
4
4
-3
-3
-2

5
8
10
-3
-2
1
6

3
3
7
1
7
-2
-2
-2
-1
2
1
8
5
-4
-3
-3

6
-1
2
5
1
8
-1
-1

10
9
4
9
8
-5
-3

8
5
4
7
1
-5
-2
-3
3
4
-3
-1
-2

10
-1
1
4
-1

9
-1
7
7
2
-3

8
5
6
7
2
-1
-1
-3
