-32 952
992
-80 904
992
-24 960
-8 56 -64 -72 760
-48 -24 904
-24 -48 904
-72 -16 888
992
-64 -56 -48 -80 712
-64 920
-64 920
-16 24 -56 872
48 -64 864
-32 -56 888
-32 952
-48 -24 904
-56 -16 904
-16 -56 904
-8 40 -40 -64 8 -64 720
-16 -64 896
-32 952
72 -24 880
-16 -64 896
32 -32 912
-8 976
992
-80 -64 -40 -40 -56 672
-48 -40 -16 32 -40 776
