24

1
9
6
10
3
-1
4
-1
8
-1
6

6
-1
6
2
-1
1
1
9

9
2
-1
9
3
-1
8
10
-1
1
1

9
-1
5
9
8
-1
3
-1
7
-1
6
-1
7

8
-1
8
-1
9
4
-1
9
8
-1
9
4
7
-1

5
6
-1
7
-1
9

8
9
9
-1
6
5
4
3
5
10

4
-1
5
9
7
-1
8
-1
1
-1
6
6

6
3
9
5
10
-1
9
-1
2
-1
10
7
2

4
-1
5
-1
10
6
-1
1
5
-1
5
9
-1
9

4
-1
4
-1
9
-1
9
1
6
10
8
1

8
-1
10
2
-1
6
4
-1
6
-1
8

4
4
-1
9
-1
1
2
8
7

2
-1
7
2
-1
2
2
-1
4
-1
10

7
2
-1
2
6
-1
4
7
9

10
7
-1
8
-1
8
-1
9
-1
8

7
-1
7
5
8
7
10

9
-1
2
-1
9
2
-1
5

2
-1
4
8
6
-1
10
-1
5
3

2
-1
7
-1
8
-1
1
-1
6
2
-1
6

3
5
3
4
7
-1
9
-1
10
-1
4

2
-1
2
-1
3
10
4
8
-1
10

4
9
7
1
1
9
-1
8
4
7
-1
8
-1

5
-1
4
-1
4
3
-1
7
-1
