992
56 -48 72 -64 -56 656
104 -8 32 -24 -80 704
96 -8 872
-24 -8 -16 32 -80 -72 712
80 -80 -80 -32 688
-32 952
-16 -72 888
992
-80 -56 -72 -24 728
-80 -8 72 -24 32 -72 656
992
-16 -24 936
-24 24 -16 904
-48 -72 -80 72 -56 624
992
-8 240 -56 664
168 -64 16 -32 680
256 -56 -72 584
-24 -8 -64 -72 -64 -72 640
64 -80 -24 -80 712
992
-16 8 -40 904
