23

7
1
2
8
-2
-2
3
9
9
10
-5
-2
-4
-3
-1
-1

4
10
8
8
-3
-2
-1
7
6
9
7
-3
-1

6
7
8
-2
-2
6
1
4
3
10
-1
-3
-1

6
2
6
1
-4
-1
-2
-1
6
5
1
7
-1
-1
-2

3
1
2
4
10
9
-4

10
10
10
4
10
9
10
-5
-1
-4
-4

6
1
7
8
-3
-2
-2
-1
4
9
-2

2
9

4
-1
3
-1

1
3
4
7
9
-3
-1
-1
10
3

10
1
2
10
-4
-3
9
3
4
9
-5
-3

1
7
-1
-1
5
10
5
-3
-1
-1

2
3
8
-3

5
-1
3
3
2
9
-4
-2

6
7
-2
9
10
9
7
-4

6
6
8
8
7
-3
-2
-2
-2
-1

1
6
3
10
-3
8
7
4
-6
-2
-3
-2

10
10
8
2
4
-4
-2
-1

5
9
1
4
4
4
7
9
-1
-2
-2
-3
-2
-1

3
1
1
8
-4
-3
-2
1
8
9
8
9

6
1
1
-3
10
3
10
-2
-1

10
4
6
8
3
-5
6
9
-5
-3
-1
-3
-1
-1

4
5
7
5
10
-1
-3
-3
2
-3
