-400 584
-40 136 -40 752
32 -24 16 -8 -40 832
-32 -16 32 -32 -64 776
992
-32 -32 -32 -32 832
64 -48 -56 800
64 -32 40 -48 -32 736
-80 -80 -80 728
-120 120 -120 120 -120 352
88 -264 624
-56 -64 -72 -16 -8 736
-48 -56 -64 -72 -8 -16 -24 -32 -40 560
-96 104 -112 120 -128 392
32 -24 -784 128
-32 -40 -48 -8 -16 -24 776
8 -40 64 -272 -16 552
-8 -16 -24 920
-120 -128 -104 616
-8 -16 -24 -32 -40 -184 -192 440
